<svg width="24" height="24" viewBox="0 0 24 24" fill="none" xmlns="http://www.w3.org/2000/svg">
<path d="M12 9.51195e-07C8.74099 9.51195e-07 8.33234 0.0138156 7.05242 0.0722149C5.77515 0.130471 4.90283 0.333344 4.13953 0.629962C3.35042 0.93663 2.68122 1.34695 2.01408 2.01407C1.34696 2.68118 0.936643 3.35044 0.62998 4.13955C0.333346 4.90283 0.130491 5.77516 0.0721956 7.05242C0.0138064 8.33234 0 8.741 0 12C0 15.259 0.0138064 15.6677 0.0721956 16.9476C0.130491 18.2248 0.333346 19.0972 0.62998 19.8605C0.936643 20.6496 1.34696 21.3188 2.01408 21.9859C2.68122 22.6531 3.35042 23.0634 4.13953 23.37C4.90283 23.6667 5.77515 23.8695 7.05242 23.9278C8.33234 23.9862 8.74099 24 12 24C15.259 24 15.6677 23.9862 16.9476 23.9278C18.2248 23.8695 19.0972 23.6667 19.8605 23.37C20.6496 23.0634 21.3188 22.6531 21.9859 21.9859C22.653 21.3188 23.0634 20.6496 23.37 19.8605C23.6667 19.0972 23.8695 18.2248 23.9278 16.9476C23.9862 15.6677 24 15.259 24 12C24 8.741 23.9862 8.33234 23.9278 7.05242C23.8695 5.77516 23.6667 4.90283 23.37 4.13955C23.0634 3.35044 22.653 2.68118 21.9859 2.01407C21.3188 1.34695 20.6496 0.93663 19.8605 0.629962C19.0972 0.333344 18.2248 0.130471 16.9476 0.0722149C15.6677 0.0138156 15.259 9.51195e-07 12 9.51195e-07ZM12 2.16216C15.2041 2.16216 15.5837 2.1744 16.849 2.23213C18.019 2.28548 18.6544 2.48098 19.0773 2.64531C19.6374 2.863 20.0371 3.12303 20.457 3.54293C20.877 3.96287 21.137 4.36262 21.3547 4.92275C21.519 5.34559 21.7145 5.98098 21.7679 7.15097C21.8256 8.41632 21.8378 8.79587 21.8378 12C21.8378 15.2041 21.8256 15.5837 21.7679 16.849C21.7145 18.019 21.519 18.6544 21.3547 19.0773C21.137 19.6374 20.877 20.0371 20.457 20.457C20.0371 20.877 19.6374 21.137 19.0773 21.3547C18.6544 21.519 18.019 21.7145 16.849 21.7679C15.5839 21.8256 15.2044 21.8378 12 21.8378C8.79563 21.8378 8.41618 21.8256 7.15097 21.7679C5.98098 21.7145 5.34559 21.519 4.92274 21.3547C4.36261 21.137 3.96287 20.877 3.54297 20.457C3.12307 20.0371 2.86299 19.6374 2.64531 19.0773C2.48097 18.6544 2.28551 18.019 2.23212 16.849C2.17439 15.5837 2.16216 15.2041 2.16216 12C2.16216 8.79587 2.17439 8.41632 2.23212 7.15097C2.28551 5.98098 2.48097 5.34559 2.64531 4.92275C2.86299 4.36262 3.12305 3.96287 3.54295 3.54298C3.96287 3.12303 4.36261 2.863 4.92274 2.64531C5.34559 2.48098 5.98098 2.28548 7.15097 2.23213C8.41632 2.1744 8.79587 2.16216 12 2.16216Z" fill="white"/>
<path d="M12 16C9.79084 16 7.99999 14.2091 7.99999 12C7.99999 9.7908 9.79084 7.99995 12 7.99995C14.2091 7.99995 16 9.7908 16 12C16 14.2091 14.2091 16 12 16V16ZM12 5.83779C8.5967 5.83779 5.83783 8.59666 5.83783 12C5.83783 15.4032 8.5967 18.1621 12 18.1621C15.4033 18.1621 18.1621 15.4032 18.1621 12C18.1621 8.59666 15.4033 5.83779 12 5.83779Z" fill="white"/>
<path d="M19.8456 5.59445C19.8456 6.38974 19.2009 7.03442 18.4056 7.03442C17.6104 7.03442 16.9656 6.38974 16.9656 5.59445C16.9656 4.79915 17.6104 4.15442 18.4056 4.15442C19.2009 4.15442 19.8456 4.79915 19.8456 5.59445" fill="white"/>
</svg>
